{
     "current_playlist":[],
     "cardbox":
    [
         {"songsbox":"top charts",
         "songscards":[
             { "id":0,
                 "playlist_type":true,
                 "playlist":[
             {"id":0,
                 "playlist_type":false,
                 "playlist":null,
                 "song_name":"Ganna Top",
                 "album_name":"Ganna Top",
                 "singers":"",
                 "image_source":"assests/images/ganna_top50.jpg",
                 "quality":{"low":"assests/songs/paro.mp3","medium":"","high":""},
                 "release_date":"date"      
                 },
             {
                "id":1,
                 "playlist_type":false,
                 "playlist":null,
                 "song_name":"jiyo re bahubal",
                 "album_name":"bahubali 2",
                 "singers":"",
                 "image_source":"assests/images/bahubali.jpg",
                 "quality":{"low":"assests/songs/jiyorebahubali.mp3","medium":"","high":""},
                 "release_date":"date"    
                },
             {
                 "id":2,
                 "playlist_type":false,
                 "playlist":null,
                 "song_name":"hamsafar",
                 "album_name":"badrinath ki dhulania",
                 "singers":"",
                 "image_source":"assests/images/hamsafar.jpg",
                 "quality":{"low":"assests/songs/hamsafar.mp3","medium":"","high":""},
                 "release_date":"date"
             },
             {
                "id":3,
                 "playlist_type":false,
                 "playlist":null,
                 "song_name":"ik vaari aa",
                 "album_name":"raabta",
                 "singers":"",
                 "image_source":"assests/images/ik_vaari_aa.jpg",
                 "quality":{"low":"assests/songs/ikvaariaa.mp3","medium":"","high":""},
                 "release_date":"date"},
             {
                "id":4,
                 "playlist_type":false,
                 "playlist":null,
                 "song_name":"ladki kar gayi chull",
                 "album_name":"kapoor and sons",
                 "singers":"",
                 "image_source":"assests/images/hip_hop.jpg",
                 "quality":{"low":"assests/songs/kargyichull.mp3","medium":"","high":""},
                 "release_date":"date"},
             {
                "id":5,
                 "playlist_type":false,
                 "playlist":null,
                 "song_name":"let me love you",
                 "album_name":"encore",
                 "singers":"",
                 "image_source":"assests/images/letmeloveu.jpg",
                 "quality":{"low":"assests/songs/letmeloveu.mp3","medium":"","high":""},
                 "release_date":"date"},
             {
                "id":6,
                 "playlist_type":false,
                 "playlist":null,
                 "song_name":"raabta",
                 "album_name":"raabta",
                 "singers":"",
                 "image_source":"assests/images/rabta.jpg",
                 "quality":{"low":"assests/songs/raabta.mp3","medium":"","high":""},
                 "release_date":"date"
             },
             {
                 "id":7,
                 "playlist_type":false,
                 "playlist":null,
                 "song_name":"shape of you",
                 "album_name":"shape of you",
                 "singers":"",
                 "image_source":"assests/images/shape_of_you.jpg",
                 "quality":{"low":"assests/songs/shapeofyou.mp3","medium":"","high":""},
                 "release_date":"date"
             }
         ],
                 "song_name":"ganna top 50",
                 "album_name":"",
                 "singers":"",
                 "image_source":"assests/images/ganna_top50.jpg",
                 "quality":{"low":"","medium":"","high":""},
                 "release_date":"date"      
                 },
             {
                "id":1,
                 "playlist_type":true,
                 "playlist":[
             {"id":0,
                 "playlist_type":false,
                 "playlist":null,
                 "song_name":"paro",
                 "album_name":"pyaar ka panchnaman 2",
                 "singers":"",
                 "image_source":"assests/images/ppk2.jpg",
                 "quality":{"low":"assests/songs/paro.mp3","medium":"","high":""},
                 "release_date":"date"      
                 },
             {
                "id":1,
                 "playlist_type":false,
                 "playlist":null,
                 "song_name":"jiyo re bahubali",
                 "album_name":"bahubali 2",
                 "singers":"",
                 "image_source":"assests/images/bahubali.jpg",
                 "quality":{"low":"assests/songs/jiyorebahubali.mp3","medium":"","high":""},
                 "release_date":"date"    
                },
             {
                 "id":2,
                 "playlist_type":false,
                 "playlist":null,
                 "song_name":"hamsafar",
                 "album_name":"badrinath ki dhulania",
                 "singers":"",
                 "image_source":"assests/images/hamsafar.jpg",
                 "quality":{"low":"assests/songs/hamsafar.mp3","medium":"","high":""},
                 "release_date":"date"
             },
             {
                "id":3,
                 "playlist_type":false,
                 "playlist":null,
                 "song_name":"ik vaari aa",
                 "album_name":"raabta",
                 "singers":"",
                 "image_source":"assests/images/ik_vaari_aa.jpg",
                 "quality":{"low":"assests/songs/ikvaariaa.mp3","medium":"","high":""},
                 "release_date":"date"},
             {
                "id":4,
                 "playlist_type":false,
                 "playlist":null,
                 "song_name":"ladki kar gayi chull",
                 "album_name":"kapoor and sons",
                 "singers":"",
                 "image_source":"assests/images/hip_hop.jpg",
                 "quality":{"low":"assests/songs/kargyichull.mp3","medium":"","high":""},
                 "release_date":"date"},
             {
                "id":5,
                 "playlist_type":false,
                 "playlist":null,
                 "song_name":"let me love you",
                 "album_name":"encore",
                 "singers":"",
                 "image_source":"assests/images/letmeloveu.jpg",
                 "quality":{"low":"assests/songs/letmeloveu.mp3","medium":"","high":""},
                 "release_date":"date"},
             {
                "id":6,
                 "playlist_type":false,
                 "playlist":null,
                 "song_name":"raabta",
                 "album_name":"raabta",
                 "singers":"",
                 "image_source":"assests/images/rabta.jpg",
                 "quality":{"low":"assests/songs/raabta.mp3","medium":"","high":""},
                 "release_date":"date"
             },
             {
                 "id":7,
                 "playlist_type":false,
                 "playlist":null,
                 "song_name":"shape of you",
                 "album_name":"shape of you",
                 "singers":"",
                 "image_source":"assests/images/shape_of_you.jpg",
                 "quality":{"low":"assests/songs/shapeofyou.mp3","medium":"","high":""},
                 "release_date":"date"
             }
         ],
                 "song_name":"bollywood top 50",
                 "album_name":"",
                 "singers":"",
              "image_source":"assests/images/top_50.jpg",
                 "quality":{"low":"","medium":"","high":""},
                 "release_date":"date"    
                },
             {
                 "id":2,
                 "playlist_type":true,
                 "playlist":[
             {"id":0,
                 "playlist_type":false,
                 "playlist":null,
                 "song_name":"paro",
                 "album_name":"pyaar ka panchnaman 2",
                 "singers":"",
                 "image_source":"assests/images/ppk2.jpg",
                 "quality":{"low":"assests/songs/paro.mp3","medium":"","high":""},
                 "release_date":"date"      
                 },
             {
                "id":1,
                 "playlist_type":false,
                 "playlist":null,
                 "song_name":"jiyo re bahubali",
                 "album_name":"bahubali 2",
                 "singers":"",
                 "image_source":"assests/images/bahubali.jpg",
                 "quality":{"low":"assests/songs/jiyorebahubali.mp3","medium":"","high":""},
                 "release_date":"date"    
                },
             {
                 "id":2,
                 "playlist_type":false,
                 "playlist":null,
                 "song_name":"hamsafar",
                 "album_name":"badrinath ki dhulania",
                 "singers":"",
                 "image_source":"assests/images/hamsafar.jpg",
                 "quality":{"low":"assests/songs/hamsafar.mp3","medium":"","high":""},
                 "release_date":"date"
             },
             {
                "id":3,
                 "playlist_type":false,
                 "playlist":null,
                 "song_name":"ik vaari aa",
                 "album_name":"raabta",
                 "singers":"",
                 "image_source":"assests/images/ik_vaari_aa.jpg",
                 "quality":{"low":"assests/songs/ikvaariaa.mp3","medium":"","high":""},
                 "release_date":"date"},
             {
                "id":4,
                 "playlist_type":false,
                 "playlist":null,
                 "song_name":"ladki kar gayi chull",
                 "album_name":"kapoor and sons",
                 "singers":"",
                 "image_source":"assests/images/hip_hop.jpg",
                 "quality":{"low":"assests/songs/kargyichull.mp3","medium":"","high":""},
                 "release_date":"date"},
             {
                "id":5,
                 "playlist_type":false,
                 "playlist":null,
                 "song_name":"let me love you",
                 "album_name":"encore",
                 "singers":"",
                 "image_source":"assests/images/letmeloveu.jpg",
                 "quality":{"low":"assests/songs/letmeloveu.mp3","medium":"","high":""},
                 "release_date":"date"},
             {
                "id":6,
                 "playlist_type":false,
                 "playlist":null,
                 "song_name":"raabta",
                 "album_name":"raabta",
                 "singers":"",
                 "image_source":"assests/images/rabta.jpg",
                 "quality":{"low":"assests/songs/raabta.mp3","medium":"","high":""},
                 "release_date":"date"
             },
             {
                 "id":7,
                 "playlist_type":false,
                 "playlist":null,
                 "song_name":"shape of you",
                 "album_name":"shape of you",
                 "singers":"",
                 "image_source":"assests/images/shape_of_you.jpg",
                 "quality":{"low":"assests/songs/shapeofyou.mp3","medium":"","high":""},
                 "release_date":"date"
             }
         ],
                 "song_name":"new hot 20 hindi songs",
                 "album_name":"",
                 "singers":"",
                 "image_source":"assests/images/new_20.jpg",
                 "quality":{"low":"","medium":"","high":""},
                 "release_date":"date"
             },
             {
                "id":3,
                 "playlist_type":true,
                 "playlist":[
             {"id":0,
                 "playlist_type":false,
                 "playlist":null,
                 "song_name":"paro",
                 "album_name":"pyaar ka panchnaman 2",
                 "singers":"",
                 "image_source":"assests/images/ppk2.jpg",
                 "quality":{"low":"assests/songs/paro.mp3","medium":"","high":""},
                 "release_date":"date"      
                 },
             {
                "id":1,
                 "playlist_type":false,
                 "playlist":null,
                 "song_name":"jiyo re bahubali",
                 "album_name":"bahubali 2",
                 "singers":"",
                 "image_source":"assests/images/bahubali.jpg",
                 "quality":{"low":"assests/songs/jiyorebahubali.mp3","medium":"","high":""},
                 "release_date":"date"    
                },
             {
                 "id":2,
                 "playlist_type":false,
                 "playlist":null,
                 "song_name":"hamsafar",
                 "album_name":"badrinath ki dhulania",
                 "singers":"",
                 "image_source":"assests/images/hamsafar.jpg",
                 "quality":{"low":"assests/songs/hamsafar.mp3","medium":"","high":""},
                 "release_date":"date"
             },
             {
                "id":3,
                 "playlist_type":false,
                 "playlist":null,
                 "song_name":"ik vaari aa",
                 "album_name":"raabta",
                 "singers":"",
                 "image_source":"assests/images/ik_vaari_aa.jpg",
                 "quality":{"low":"assests/songs/ikvaariaa.mp3","medium":"","high":""},
                 "release_date":"date"},
             {
                "id":4,
                 "playlist_type":false,
                 "playlist":null,
                 "song_name":"ladki kar gayi chull",
                 "album_name":"kapoor and sons",
                 "singers":"",
                 "image_source":"assests/images/hip_hop.jpg",
                 "quality":{"low":"assests/songs/kargyichull.mp3","medium":"","high":""},
                 "release_date":"date"},
             {
                "id":5,
                 "playlist_type":false,
                 "playlist":null,
                 "song_name":"let me love you",
                 "album_name":"encore",
                 "singers":"",
                 "image_source":"assests/images/letmeloveu.jpg",
                 "quality":{"low":"assests/songs/letmeloveu.mp3","medium":"","high":""},
                 "release_date":"date"},
             {
                "id":6,
                 "playlist_type":false,
                 "playlist":null,
                 "song_name":"raabta",
                 "album_name":"raabta",
                 "singers":"",
                 "image_source":"assests/images/rabta.jpg",
                 "quality":{"low":"assests/songs/raabta.mp3","medium":"","high":""},
                 "release_date":"date"
             },
             {
                 "id":7,
                 "playlist_type":false,
                 "playlist":null,
                 "song_name":"shape of you",
                 "album_name":"shape of you",
                 "singers":"",
                 "image_source":"assests/images/shape_of_you.jpg",
                 "quality":{"low":"assests/songs/shapeofyou.mp3","medium":"","high":""},
                 "release_date":"date"
             }
         ],
                 "song_name":"bollywood love 2017",
                 "album_name":"",
                 "singers":"",
                 "image_source":"assests/images/bollylove_top5.jpg",
                 "quality":{"low":"","medium":"","high":""},
                 "release_date":"date"},
             {
                "id":4,
                 "playlist_type":true,
                 "playlist":[
             {"id":0,
                 "playlist_type":false,
                 "playlist":null,
                 "song_name":"paro",
                 "album_name":"pyaar ka panchnaman 2",
                 "singers":"",
                 "image_source":"assests/images/ppk2.jpg",
                 "quality":{"low":"assests/songs/paro.mp3","medium":"","high":""},
                 "release_date":"date"      
                 },
             {
                "id":1,
                 "playlist_type":false,
                 "playlist":null,
                 "song_name":"jiyo re bahubali",
                 "album_name":"bahubali 2",
                 "singers":"",
                 "image_source":"assests/images/bahubali.jpg",
                 "quality":{"low":"assests/songs/jiyorebahubali.mp3","medium":"","high":""},
                 "release_date":"date"    
                },
             {
                 "id":2,
                 "playlist_type":false,
                 "playlist":null,
                 "song_name":"hamsafar",
                 "album_name":"badrinath ki dhulania",
                 "singers":"",
                 "image_source":"assests/images/hamsafar.jpg",
                 "quality":{"low":"assests/songs/hamsafar.mp3","medium":"","high":""},
                 "release_date":"date"
             },
             {
                "id":3,
                 "playlist_type":false,
                 "playlist":null,
                 "song_name":"ik vaari aa",
                 "album_name":"raabta",
                 "singers":"",
                 "image_source":"assests/images/ik_vaari_aa.jpg",
                 "quality":{"low":"assests/songs/ikvaariaa.mp3","medium":"","high":""},
                 "release_date":"date"},
             {
                "id":4,
                 "playlist_type":false,
                 "playlist":null,
                 "song_name":"ladki kar gayi chull",
                 "album_name":"kapoor and sons",
                 "singers":"",
                 "image_source":"assests/images/hip_hop.jpg",
                 "quality":{"low":"assests/songs/kargyichull.mp3","medium":"","high":""},
                 "release_date":"date"},
             {
                "id":5,
                 "playlist_type":false,
                 "playlist":null,
                 "song_name":"let me love you",
                 "album_name":"encore",
                 "singers":"",
                 "image_source":"assests/images/letmeloveu.jpg",
                 "quality":{"low":"assests/songs/letmeloveu.mp3","medium":"","high":""},
                 "release_date":"date"},
             {
                "id":6,
                 "playlist_type":false,
                 "playlist":null,
                 "song_name":"raabta",
                 "album_name":"raabta",
                 "singers":"",
                 "image_source":"assests/images/rabta.jpg",
                 "quality":{"low":"assests/songs/raabta.mp3","medium":"","high":""},
                 "release_date":"date"
             },
             {
                 "id":7,
                 "playlist_type":false,
                 "playlist":null,
                 "song_name":"shape of you",
                 "album_name":"shape of you",
                 "singers":"",
                 "image_source":"assests/images/shape_of_you.jpg",
                 "quality":{"low":"assests/songs/shapeofyou.mp3","medium":"","high":""},
                 "release_date":"date"
             }
         ],
                 "song_name":"new 20 international songs",
                 "album_name":"",
                 "singers":"",
                 "image_source":"assests/images/internation_top5.jpg",
                 "quality":{"low":"","medium":"","high":""},
                 "release_date":"date"},
             {
                "id":5,
                 "playlist_type":true,
                 "playlist":[
             {"id":0,
                 "playlist_type":false,
                 "playlist":null,
                 "song_name":"paro",
                 "album_name":"pyaar ka panchnaman 2",
                 "singers":"",
                 "image_source":"assests/images/ppk2.jpg",
                 "quality":{"low":"assests/songs/paro.mp3","medium":"","high":""},
                 "release_date":"date"      
                 },
             {
                "id":1,
                 "playlist_type":false,
                 "playlist":null,
                 "song_name":"jiyo re bahubali",
                 "album_name":"bahubali 2",
                 "singers":"",
                 "image_source":"assests/images/bahubali.jpg",
                 "quality":{"low":"assests/songs/jiyorebahubali.mp3","medium":"","high":""},
                 "release_date":"date"    
                },
             {
                 "id":2,
                 "playlist_type":false,
                 "playlist":null,
                 "song_name":"hamsafar",
                 "album_name":"badrinath ki dhulania",
                 "singers":"",
                 "image_source":"assests/images/hamsafar.jpg",
                 "quality":{"low":"assests/songs/hamsafar.mp3","medium":"","high":""},
                 "release_date":"date"
             },
             {
                "id":3,
                 "playlist_type":false,
                 "playlist":null,
                 "song_name":"ik vaari aa",
                 "album_name":"raabta",
                 "singers":"",
                 "image_source":"assests/images/ik_vaari_aa.jpg",
                 "quality":{"low":"assests/songs/ikvaariaa.mp3","medium":"","high":""},
                 "release_date":"date"},
             {
                "id":4,
                 "playlist_type":false,
                 "playlist":null,
                 "song_name":"ladki kar gayi chull",
                 "album_name":"kapoor and sons",
                 "singers":"",
                 "image_source":"assests/images/hip_hop.jpg",
                 "quality":{"low":"assests/songs/kargyichull.mp3","medium":"","high":""},
                 "release_date":"date"},
             {
                "id":5,
                 "playlist_type":false,
                 "playlist":null,
                 "song_name":"let me love you",
                 "album_name":"encore",
                 "singers":"",
                 "image_source":"assests/images/letmeloveu.jpg",
                 "quality":{"low":"assests/songs/letmeloveu.mp3","medium":"","high":""},
                 "release_date":"date"},
             {
                "id":6,
                 "playlist_type":false,
                 "playlist":null,
                 "song_name":"raabta",
                 "album_name":"raabta",
                 "singers":"",
                 "image_source":"assests/images/rabta.jpg",
                 "quality":{"low":"assests/songs/raabta.mp3","medium":"","high":""},
                 "release_date":"date"
             },
             {
                 "id":7,
                 "playlist_type":false,
                 "playlist":null,
                 "song_name":"shape of you",
                 "album_name":"shape of you",
                 "singers":"",
                 "image_source":"assests/images/shape_of_you.jpg",
                 "quality":{"low":"assests/songs/shapeofyou.mp3","medium":"","high":""},
                 "release_date":"date"
             }
         ],
                 "song_name":"latest love bollywood 2017 songs",
                 "album_name":"",
                 "singers":"",
                 "image_source":"assests/images/bollylove_top5.jpg",
                 "quality":{"low":"","medium":"","high":""},
                 "release_date":"date"},
             {
                "id":6,
                 "playlist_type":true,
                 "playlist":[
             {"id":0,
                 "playlist_type":false,
                 "playlist":null,
                 "song_name":"paro",
                 "album_name":"pyaar ka panchnaman 2",
                 "singers":"",
                 "image_source":"assests/images/ppk2.jpg",
                 "quality":{"low":"assests/songs/paro.mp3","medium":"","high":""},
                 "release_date":"date"      
                 },
             {
                "id":1,
                 "playlist_type":false,
                 "playlist":null,
                 "song_name":"jiyo re bahubali",
                 "album_name":"bahubali 2",
                 "singers":"",
                 "image_source":"assests/images/bahubali.jpg",
                 "quality":{"low":"assests/songs/jiyorebahubali.mp3","medium":"","high":""},
                 "release_date":"date"    
                },
             {
                 "id":2,
                 "playlist_type":false,
                 "playlist":null,
                 "song_name":"hamsafar",
                 "album_name":"badrinath ki dhulania",
                 "singers":"",
                 "image_source":"assests/images/hamsafar.jpg",
                 "quality":{"low":"assests/songs/hamsafar.mp3","medium":"","high":""},
                 "release_date":"date"
             },
             {
                "id":3,
                 "playlist_type":false,
                 "playlist":null,
                 "song_name":"ik vaari aa",
                 "album_name":"raabta",
                 "singers":"",
                 "image_source":"assests/images/ik_vaari_aa.jpg",
                 "quality":{"low":"assests/songs/ikvaariaa.mp3","medium":"","high":""},
                 "release_date":"date"},
             {
                "id":4,
                 "playlist_type":false,
                 "playlist":null,
                 "song_name":"ladki kar gayi chull",
                 "album_name":"kapoor and sons",
                 "singers":"",
                 "image_source":"assests/images/hip_hop.jpg",
                 "quality":{"low":"assests/songs/kargyichull.mp3","medium":"","high":""},
                 "release_date":"date"},
             {
                "id":5,
                 "playlist_type":false,
                 "playlist":null,
                 "song_name":"let me love you",
                 "album_name":"encore",
                 "singers":"",
                 "image_source":"assests/images/letmeloveu.jpg",
                 "quality":{"low":"assests/songs/letmeloveu.mp3","medium":"","high":""},
                 "release_date":"date"},
             {
                "id":6,
                 "playlist_type":false,
                 "playlist":null,
                 "song_name":"raabta",
                 "album_name":"raabta",
                 "singers":"",
                 "image_source":"assests/images/rabta.jpg",
                 "quality":{"low":"assests/songs/raabta.mp3","medium":"","high":""},
                 "release_date":"date"
             },
             {
                 "id":7,
                 "playlist_type":false,
                 "playlist":null,
                 "song_name":"shape of you",
                 "album_name":"shape of you",
                 "singers":"",
                 "image_source":"assests/images/shape_of_you.jpg",
                 "quality":{"low":"assests/songs/shapeofyou.mp3","medium":"","high":""},
                 "release_date":"date"
             }
         ],
                 "song_name":"today top 5",
                 "album_name":"",
                 "singers":"",
                 "image_source":"assests/images/internation_top5love.jpg",
                 "quality":{"low":"","medium":"","high":""},
                 "release_date":"date"
             },
             {
                 "id":7,
                 "playlist_type":true,
                 "playlist":[
             {"id":0,
                 "playlist_type":false,
                 "playlist":null,
                 "song_name":"paro",
                 "album_name":"pyaar ka panchnaman 2",
                 "singers":"",
                 "image_source":"assests/images/ppk2.jpg",
                 "quality":{"low":"assests/songs/paro.mp3","medium":"","high":""},
                 "release_date":"date"      
                 },
             {
                "id":1,
                 "playlist_type":false,
                 "playlist":null,
                 "song_name":"jiyo re bahubali",
                 "album_name":"bahubali 2",
                 "singers":"",
                 "image_source":"assests/images/bahubali.jpg",
                 "quality":{"low":"assests/songs/jiyorebahubali.mp3","medium":"","high":""},
                 "release_date":"date"    
                },
             {
                 "id":2,
                 "playlist_type":false,
                 "playlist":null,
                 "song_name":"hamsafar",
                 "album_name":"badrinath ki dhulania",
                 "singers":"",
                 "image_source":"assests/images/hamsafar.jpg",
                 "quality":{"low":"assests/songs/hamsafar.mp3","medium":"","high":""},
                 "release_date":"date"
             },
             {
                "id":3,
                 "playlist_type":false,
                 "playlist":null,
                 "song_name":"ik vaari aa",
                 "album_name":"raabta",
                 "singers":"",
                 "image_source":"assests/images/ik_vaari_aa.jpg",
                 "quality":{"low":"assests/songs/ikvaariaa.mp3","medium":"","high":""},
                 "release_date":"date"},
             {
                "id":4,
                 "playlist_type":false,
                 "playlist":null,
                 "song_name":"ladki kar gayi chull",
                 "album_name":"kapoor and sons",
                 "singers":"",
                 "image_source":"assests/images/hip_hop.jpg",
                 "quality":{"low":"assests/songs/kargyichull.mp3","medium":"","high":""},
                 "release_date":"date"},
             {
                "id":5,
                 "playlist_type":false,
                 "playlist":null,
                 "song_name":"let me love you",
                 "album_name":"encore",
                 "singers":"",
                 "image_source":"assests/images/letmeloveu.jpg",
                 "quality":{"low":"assests/songs/letmeloveu.mp3","medium":"","high":""},
                 "release_date":"date"},
             {
                "id":6,
                 "playlist_type":false,
                 "playlist":null,
                 "song_name":"raabta",
                 "album_name":"raabta",
                 "singers":"",
                 "image_source":"assests/images/rabta.jpg",
                 "quality":{"low":"assests/songs/raabta.mp3","medium":"","high":""},
                 "release_date":"date"
             },
             {
                 "id":7,
                 "playlist_type":false,
                 "playlist":null,
                 "song_name":"shape of you",
                 "album_name":"shape of you",
                 "singers":"",
                 "image_source":"assests/images/shape_of_you.jpg",
                 "quality":{"low":"assests/songs/shapeofyou.mp3","medium":"","high":""},
                 "release_date":"date"
             }
         ],
                 "song_name":"today hindi top 5",
                 "album_name":"",
                 "singers":"",
                 "image_source":"assests/images/hindi_top5.jpg",
                 "quality":{"low":"","medium":"","high":""},
                 "release_date":"date"
             }
         ]
         },
         {"songsbox":"latest albums",
         "songscards":[
             {"id":0,
                 "playlist_type":false,
                 "playlist":null,
                 "song_name":"paro",
                 "album_name":"pyaar ka panchnaman 2",
                 "singers":"",
                 "image_source":"assests/images/ppk2.jpg",
                 "quality":{"low":"assests/songs/paro.mp3","medium":"","high":""},
                 "release_date":"date"      
                 },
             {
                "id":1,
                 "playlist_type":false,
                 "playlist":null,
                 "song_name":"jiyo re bahubali",
                 "album_name":"bahubali 2",
                 "singers":"",
                 "image_source":"assests/images/bahubali.jpg",
                 "quality":{"low":"assests/songs/jiyorebahubali.mp3","medium":"","high":""},
                 "release_date":"date"    
                },
             {
                 "id":2,
                 "playlist_type":false,
                 "playlist":null,
                 "song_name":"hamsafar",
                 "album_name":"badrinath ki dhulania",
                 "singers":"",
                 "image_source":"assests/images/hamsafar.jpg",
                 "quality":{"low":"assests/songs/hamsafar.mp3","medium":"","high":""},
                 "release_date":"date"
             },
             {
                "id":3,
                 "playlist_type":false,
                 "playlist":null,
                 "song_name":"ik vaari aa",
                 "album_name":"raabta",
                 "singers":"",
                 "image_source":"assests/images/ik_vaari_aa.jpg",
                 "quality":{"low":"assests/songs/ikvaariaa.mp3","medium":"","high":""},
                 "release_date":"date"},
             {
                "id":4,
                 "playlist_type":false,
                 "playlist":null,
                 "song_name":"ladki kar gayi chull",
                 "album_name":"kapoor and sons",
                 "singers":"",
                 "image_source":"assests/images/hip_hop.jpg",
                 "quality":{"low":"assests/songs/kargyichull.mp3","medium":"","high":""},
                 "release_date":"date"},
             {
                "id":5,
                 "playlist_type":false,
                 "playlist":null,
                 "song_name":"let me love you",
                 "album_name":"encore",
                 "singers":"",
                 "image_source":"assests/images/letmeloveu.jpg",
                 "quality":{"low":"assests/songs/letmeloveu.mp3","medium":"","high":""},
                 "release_date":"date"},
                 {
                    "id":7,
                    "playlist_type":false,
                    "playlist":null,
                    "song_name":"BAAZIGAR",
                    "album_name":"Armani White and Divine",
                    "singers":"",
                    "image_source":"assests/images/BAAZIGAR.jpeg",
                    "quality":{"low":"assests/songs/BAAZIGAR.mp3","medium":"","high":""},
                    "release_date":"date"
                },
             {
                "id":6,
                 "playlist_type":false,
                 "playlist":null,
                 "song_name":"raabta",
                 "album_name":"raabta",
                 "singers":"",
                 "image_source":"assests/images/rabta.jpg",
                 "quality":{"low":"assests/songs/raabta.mp3","medium":"","high":""},
                 "release_date":"date"
             }
         ]
         },
        {"songsbox":"new  releases",
         "songscards":[
             {"id":0,
                 "playlist_type":false,
                 "playlist":null,
                 "song_name":"DAKU",
                 "album_name":"Chani Nattan",
                 "singers":"",
                 "image_source":"assests/images/daku.jpg",
                 "quality":{"low":"assests/songs/daku.mp3","medium":"","high":""},
                 "release_date":"date"      
                 },
             {
                "id":1,
                 "playlist_type":false,
                 "playlist":null,
                 "song_name":"DAFA HO",
                 "album_name":"Vicky Tarori",
                 "singers":"",
                 "image_source":"assests/images/Daffa-Ho.jpg",
                 "quality":{"low":"assests/songs/Daffa Ho.mp3","medium":"","high":""},
                 "release_date":"date"    
                },
             {
                 "id":2,
                 "playlist_type":false,
                 "playlist":null,
                 "song_name":"Company",
                 "album_name":"Emiway Bantai",
                 "singers":"",
                 "image_source":"assests/images/Company.jpg",
                 "quality":{"low":"assests/songs/Company.mp3","medium":"","high":""},
                 "release_date":"date"
             },
             {
                "id":3,
                 "playlist_type":false,
                 "playlist":null,
                 "song_name":"No Love",
                 "album_name":"Shubh",
                 "singers":"",
                 "image_source":"assests/images/no love.jpg",
                 "quality":{"low":"assests/songs/No_love.mp3","medium":"","high":""},
                 "release_date":"date"},
             {
                "id":4,
                 "playlist_type":false,
                 "playlist":null,
                 "song_name":"Jhoome Jo Pathaan",
                 "album_name":"Shah Rukh Khan",
                 "singers":"",
                 "image_source":"assests/images/joomhe.jpg",
                 "quality":{"low":"assests/songs/Jhoome.mp3","medium":"","high":""},
                 "release_date":"date"},
             {
                "id":5,
                 "playlist_type":false,
                 "playlist":null,
                 "song_name":"JAADUGAR",
                 "album_name":"Paradox",
                 "singers":"",
                 "image_source":"assests/images/jaadugar.jpg",
                 "quality":{"low":"assests/songs/JAADUGAR.mp3","medium":"","high":""},
                 "release_date":"date"},
             {
                "id":6,
                 "playlist_type":false,
                 "playlist":null,
                 "song_name":"Deewane Hum Nahi Hote",
                 "album_name":"Aditya Yadav",
                 "singers":"",
                 "image_source":"assests/images/dewane.jpg",
                 "quality":{"low":"assests/songs/Deewane_Hum_Nahi.mp3","medium":"","high":""},
                 "release_date":"date"
             },
             {
                 "id":7,
                 "playlist_type":false,
                 "playlist":null,
                 "song_name":"Ik Tu hi yaar",
                 "album_name":"Arijit Singh",
                 "singers":"",
                 "image_source":"assests/images/ik.jpg",
                 "quality":{"low":"assests/songs/ek.mp3","medium":"","high":""},
                 "release_date":"date"
             }
         ]
         },
        {"songsbox":"top trending",
         "songscards":[
             {"id":0,
                 "playlist_type":false,
                 "playlist":null,
                 "song_name":"DEVIL😈",
                 "album_name":"sidhu moose wala songs",
                 "singers":"",
                 "image_source":"assests/images/divel.jpg",
                 "quality":{"low":"assests/songs/DEVIL_😈.mp3","medium":"","high":""},
                 "release_date":"date"      
                 },
             {
                "id":1,
                 "playlist_type":false,
                 "playlist":null,
                 "song_name":"Aasman ko chuka",
                 "album_name":"Tapas Relia",
                 "singers":"",
                 "image_source":"assests/images/aasman.jpg",
                 "quality":{"low":"assests/songs/Aasman.mp3","medium":"","high":""},
                 "release_date":"date"    
                },
             {
                 "id":2,
                 "playlist_type":false,
                 "playlist":null,
                 "song_name":"on_na_na",
                 "album_name":"Rock and roll ",
                 "singers":"",
                 "image_source":"assests/images/on na na.jpg",
                 "quality":{"low":"assests/songs/on na na.mp3","medium":"","high":"1.75"},
                 "release_date":"date"
             },
             {
                "id":3,
                 "playlist_type":false,
                 "playlist":null,
                 "song_name":"Bijlee Bijlee",
                 "album_name":"Harrdy Sandhu",
                 "singers":"",
                 "image_source":"assests/images/Bijlee Bijlee.jpg",
                 "quality":{"low":"assests/songs/Bejlee.mp3","medium":"","high":""},
                 "release_date":"date"},
             {
                "id":4,
                 "playlist_type":false,
                 "playlist":null,
                 "song_name":"maan meri jaan",
                 "album_name":"kapoor and sons",
                 "singers":"",
                 "image_source":"assests/images/maan meri jaan.jpg",
                 "quality":{"low":"assests/songs/maan.mp3","medium":"","high":""},
                 "release_date":"date"},
             {
                "id":5,
                 "playlist_type":false,
                 "playlist":null,
                 "song_name":"Tum Jo Aaye",
                 "album_name":"Rahat Fateh Ali Khan",
                 "singers":"",
                 "image_source":"assests/images/tum jo aaye.jpg",
                 "quality":{"low":"assests/songs/tum jo aaye.mp3","medium":"","high":""},
                 "release_date":"date"},
             {
                "id":6,
                 "playlist_type":false,
                 "playlist":null,
                 "song_name":"Yaad piya ki",
                 "album_name":"Neha Kakkar",
                 "singers":"",
                 "image_source":"assests/images/yaad piya ki aane.jpg",
                 "quality":{"low":"assests/songs/yaad piya.mp3","medium":"","high":""},
                 "release_date":"date"
             },
             {
                 "id":7,
                 "playlist_type":false,
                 "playlist":null,
                 "song_name":"Pyaar Hota Kayi Bar",
                 "album_name":" Arijit Singh",
                 "singers":"",
                 "image_source":"assests/images/pyaar hota.jpg",
                 "quality":{"low":"assests/songs/Pyaar_Hota_Kayi_Baar.mp3","medium":"","high":""},
                 "release_date":"date"
             }
         ]
         }
         
     ]
}
